…
    ## Warning in as.POSIXlt.POSIXct(x, tz = tz): unknown timezone '%y/%m/%d'

    ## Warning in as.POSIXlt.POSIXct(x, tz = tz): unknown timezone '%y/%m/%d'

``` r
new_data
```

    ## # A tibble: 6,754 × 14
    ##          EMPI BIRTH_DATE          sex_c PAT_ENC_CSN_ID hosp_admsn_time    
    ##         <dbl> <dttm>              <dbl>          <dbl> <dttm>             
    ##  1 1000039263 1937-04-28 00:00:00     2      115794137 2020-02-05 01:08:00
    ##  2 1000087431 1945-05-18 00:00:00     1      150005039 2021-07-02 15:08:00
    ##  3 1000087431 1945-05-18 00:00:00     1      150005039 2021-07-02 15:08:00
    ##  4 1000092404 1942-03-24 00:00:00     1      190464289 2022-05-07 10:23:00
    ##  5 1000092404 1942-03-24 00:00:00     1      190464289 2022-05-07 10:23:00
    ##  6 1000172922 1950-09-19 00:00:00     1      186868549 2022-03-31 22:09:00
    ##  7 1000178374 1987-03-12 00:00:00     2      179436960 2022-01-10 02:25:00
    ##  8 1000039263 1937-04-28 00:00:00     2      115794137 2020-02-05 01:08:00
    ##  9 1000039263 1937-04-28 00:00:00     2      115794137 2020-02-05 01:08:00
    ## 10 1000087431 1945-05-18 00:00:00     1      150005039 2021-07-02 15:08:00
    ## # … with 6,744 more rows, and 9 more variables: hosp_disch_time <dttm>,
    ## #   FLO_MEAS_ID <dbl>, PLACEMENT_INSTANT <dttm>, REMOVAL_INSTANT <dttm>,
    ## #   DESCRIPTION <chr>, flo_meas_name <chr>, placement_date <date>,
    ## #   removal_date <date>, duration <drtn>
…
    ## Warning in as.POSIXlt.POSIXct(x, tz = tz): unknown timezone '%y/%m/%d'

``` r
bcp_df
```

    ## # A tibble: 2,546 × 5
    ##          EMPI PROC_NAME     RESULT_TIME         status                date      
    ##         <dbl> <chr>         <dttm>              <chr>                 <date>    
    ##  1 1000005895 BLOOD CULTURE 2021-03-20 09:36:00 blood_culture_positi… 2021-03-20
    ##  2 1000005895 BLOOD CULTURE 2021-05-06 09:39:00 blood_culture_positi… 2021-05-06
    ##  3 1000005895 BLOOD CULTURE 2021-05-11 08:51:00 blood_culture_positi… 2021-05-11
    ##  4 1000005895 BLOOD CULTURE 2021-05-03 12:48:00 blood_culture_positi… 2021-05-03
    ##  5 1000016630 BLOOD CULTURE 2020-11-12 15:04:00 blood_culture_positi… 2020-11-12
    ##  6 1000050994 BLOOD CULTURE 2020-03-29 11:02:00 blood_culture_positi… 2020-03-29
    ##  7 1000050994 BLOOD CULTURE 2020-03-28 10:29:00 blood_culture_positi… 2020-03-28
    ##  8 1000070882 BLOOD CULTURE 2021-07-31 12:06:00 blood_culture_positi… 2021-07-31
    ##  9 1000070882 BLOOD CULTURE 2021-08-01 14:21:00 blood_culture_positi… 2021-08-01
    ## 10 1000073127 BLOOD CULTURE 2021-07-19 11:24:00 blood_culture_positi… 2021-07-19
    ## # … with 2,536 more rows
…
df.match %>% 
  mutate(
    BIRTH_DATE = as.Date(BIRTH_DATE, "%y/%m/%d"),
    sex_c = case_when(sex_c == 1 ~ "Male",
              sex_c == 2 ~ "Female") %>% 
      as.factor()
  ) 
```

    ## Warning in as.POSIXlt.POSIXct(x, tz = tz): unknown timezone '%y/%m/%d'

    ## # A tibble: 1,190 × 23
    ##          EMPI BIRTH_DATE sex_c  PAT_EN…¹ hosp_admsn_time     hosp_disch_time    
    ##         <dbl> <date>     <fct>     <dbl> <dttm>              <dttm>             
    ##  1 1000039263 1937-04-28 Female   1.16e8 2020-02-05 01:08:00 2020-04-01 00:27:00
    ##  2 1000087431 1945-05-18 Male     1.50e8 2021-07-02 15:08:00 2021-07-18 16:52:00
    ##  3 1000092404 1942-03-24 Male     1.90e8 2022-05-07 10:23:00 2022-05-21 05:15:00
    ##  4 1000172922 1950-09-19 Male     1.87e8 2022-03-31 22:09:00 2022-04-07 03:03:00
    ##  5 1000178374 1987-03-12 Female   1.79e8 2022-01-10 02:25:00 2022-01-20 18:35:00
    ##  6 1000018092 1953-10-27 Male     1.85e8 2022-03-12 19:48:00 2022-04-26 16:22:00
    ##  7 1000135489 1989-11-02 Male     1.28e8 2020-10-01 10:00:00 2020-10-08 17:09:00
    ##  8 1000016630 1980-01-06 Female   1.28e8 2020-10-30 10:40:00 2020-11-15 09:33:00
    ##  9 1000070882 1958-08-08 Female   1.52e8 2021-07-28 00:33:00 2021-08-12 19:00:00
    ## 10 1000086187 1949-01-22 Female   1.74e8 2021-11-29 16:05:00 2022-01-10 18:10:00
    ## # … with 1,180 more rows, 17 more variables: FLO_MEAS_ID <dbl>,
    ## #   PLACEMENT_INSTANT <dttm>, REMOVAL_INSTANT <dttm>, DESCRIPTION <chr>,
    ## #   flo_meas_name <chr>, placement_date.x <date>, removal_date.x <date>,
    ## #   duration <drtn>, bcp_status <dbl>, date <date>, placement_date.y <date>,
    ## #   removal_date.y <date>, period_1 <Interval>, cl_duration_time <drtn>,
    ## #   matching_period <drtn>, new_bcp_status <dbl>, new_matching_period <dbl>,
    ## #   and abbreviated variable name ¹​PAT_ENC_CSN_ID

``` r
df.match
```

    ## # A tibble: 1,190 × 23
    ##          EMPI BIRTH_DATE          sex_c PAT_ENC_CSN_ID hosp_admsn_time    
    ##         <dbl> <dttm>              <dbl>          <dbl> <dttm>             
    ##  1 1000039263 1937-04-28 00:00:00     2      115794137 2020-02-05 01:08:00
    ##  2 1000087431 1945-05-18 00:00:00     1      150005039 2021-07-02 15:08:00
    ##  3 1000092404 1942-03-24 00:00:00     1      190464289 2022-05-07 10:23:00
    ##  4 1000172922 1950-09-19 00:00:00     1      186868549 2022-03-31 22:09:00
    ##  5 1000178374 1987-03-12 00:00:00     2      179436960 2022-01-10 02:25:00
    ##  6 1000018092 1953-10-27 00:00:00     1      185024635 2022-03-12 19:48:00
    ##  7 1000135489 1989-11-02 00:00:00     1      127547323 2020-10-01 10:00:00
    ##  8 1000016630 1980-01-06 00:00:00     2      128010373 2020-10-30 10:40:00
    ##  9 1000070882 1958-08-08 00:00:00     2      151803384 2021-07-28 00:33:00
    ## 10 1000086187 1949-01-22 00:00:00     2      174308016 2021-11-29 16:05:00
    ## # … with 1,180 more rows, and 18 more variables: hosp_disch_time <dttm>,
    ## #   FLO_MEAS_ID <dbl>, PLACEMENT_INSTANT <dttm>, REMOVAL_INSTANT <dttm>,
    ## #   DESCRIPTION <chr>, flo_meas_name <chr>, placement_date.x <date>,
    ## #   removal_date.x <date>, duration <drtn>, bcp_status <dbl>, date <date>,
    ## #   placement_date.y <date>, removal_date.y <date>, period_1 <Interval>,
    ## #   cl_duration_time <drtn>, matching_period <drtn>, new_bcp_status <dbl>,
    ## #   new_matching_period <dbl>
…
